<svg xmlns="http://www.w3.org/2000/svg" width="36.84" height="36.29" viewBox="0 0 36.84 36.29">
  <g id="Group_1280" data-name="Group 1280" transform="translate(-571.422 -94.383)">
    <g id="Group_1277" data-name="Group 1277">
      <path id="Path_1766" data-name="Path 1766" d="M666.129,104.505v.6a8.386,8.386,0,0,1-4.083,7.51l.06,4.661-3-2.9a9.669,9.669,0,0,1-2.6.355h-2.279a9.622,9.622,0,0,1-9.622-9.622v-.6a9.622,9.622,0,0,1,9.622-9.622h2.279A9.622,9.622,0,0,1,666.129,104.505Z" transform="translate(-58.367)" fill="none" stroke="#454545" stroke-miterlimit="10" stroke-width="1"/>
      <path id="Path_1767" data-name="Path 1767" d="M686.925,122.87a2.6,2.6,0,1,1,2.884,1.621.554.554,0,0,0-.461.544v2.277" transform="translate(-92.212 -19.439)" fill="none" stroke="#ffc400" stroke-linecap="round" stroke-miterlimit="10" stroke-width="1.371"/>
      <circle id="Ellipse_5" data-name="Ellipse 5" cx="0.6" cy="0.6" r="0.6" transform="translate(596.473 108.984)" fill="#ffc400"/>
      <path id="Path_1768" data-name="Path 1768" d="M584.193,159.815H576a4.074,4.074,0,0,0-4.074,4.073v11.291a4.25,4.25,0,0,0,4.25,4.25h4.35l3.063,2.8a.3.3,0,0,0,.495-.2l.154-2.549,7.378-.05a4.451,4.451,0,0,0,4.451-4.451v-4.8" transform="translate(0 -52.142)" fill="none" stroke="#454545" stroke-miterlimit="10" stroke-width="1"/>
      <line id="Line_9" data-name="Line 9" x2="11.869" transform="translate(575.141 113.423)" fill="none" stroke="#ffc400" stroke-linecap="round" stroke-miterlimit="10" stroke-width="1.5"/>
      <line id="Line_10" data-name="Line 10" x2="13.746" transform="translate(575.141 121.604)" fill="none" stroke="#ffc400" stroke-linecap="round" stroke-miterlimit="10" stroke-width="1.5"/>
      <line id="Line_11" data-name="Line 11" x2="16.529" transform="translate(575.141 117.614)" fill="none" stroke="#ffc400" stroke-linecap="round" stroke-miterlimit="10" stroke-width="1.5"/>
    </g>
  </g>
</svg>
