<svg xmlns="http://www.w3.org/2000/svg" width="39.955" height="34.931" viewBox="0 0 39.955 32.931">
  <g id="Group_1279" data-name="Group 1279" transform="translate(-157.405 -244.16)">
    <g id="Group_1278" data-name="Group 1278" transform="translate(157.906 244.66)">
      <path id="Path_1770" data-name="Path 1770" d="M165.255,262.489h5.205a.908.908,0,0,1,.908.908v1.454a1.014,1.014,0,0,1-1.014,1.014h-5.1" transform="translate(-160.356 -250.605)" fill="none" stroke="#ffc400" stroke-miterlimit="10" stroke-width="1"/>
      <path id="Path_1769" data-name="Path 1769" d="M185.145,272.442h-1.774a1.509,1.509,0,0,1-1.134-.507c-1.76-1.983-8.832-9.111-19.774-9.4a4.748,4.748,0,0,1-2.8-.922,4.428,4.428,0,0,1-1.748-3.427c-.2-3.885,4.463-4.127,4.463-4.127s12.118-.694,19.42-8.879a1.536,1.536,0,0,1,1.144-.524h2.2a1.031,1.031,0,0,1,1.028,1.028v25.737A1.02,1.02,0,0,1,185.145,272.442Z" transform="translate(-157.906 -244.66)" fill="none" stroke="#454545" stroke-miterlimit="10" stroke-width="1"/>
      <line id="Line_12" data-name="Line 12" y1="8.605" transform="translate(4.899 9.303)" fill="none" stroke="#454545" stroke-miterlimit="10" stroke-width="1"/>
      <rect id="Rectangle_24" data-name="Rectangle 24" width="3.928" height="3.375" rx="1.309" transform="translate(13.536 11.884)" fill="none" stroke="#ffc400" stroke-miterlimit="10" stroke-width="1"/>
    </g>
    <line id="Line_13" data-name="Line 13" y1="6.027" transform="translate(182.929 266.415)" fill="none" stroke="#454545" stroke-miterlimit="10" stroke-width="1"/>
    <line id="Line_14" data-name="Line 14" y2="20.167" transform="translate(182.929 244.66)" fill="none" stroke="#454545" stroke-miterlimit="10" stroke-width="1"/>
    <path id="Path_1771" data-name="Path 1771" d="M167.992,285.5l3.909-12.771s-4.567-1.569-7.433-1.231l-.17,13.79Z" transform="translate(-2.131 -8.934)" fill="none" stroke="#454545" stroke-miterlimit="10" stroke-width="1"/>
    <path id="Path_1772" data-name="Path 1772" d="M200.154,257.617h.266a3.127,3.127,0,0,1,3.128,3.128v3.467a3.127,3.127,0,0,1-3.128,3.127h-.255Z" transform="translate(-14.087 -4.32)" fill="none" stroke="#454545" stroke-miterlimit="10" stroke-width="1"/>
    <line id="Line_15" data-name="Line 15" y1="2.808" x2="3.021" transform="translate(191.013 248.319)" fill="none" stroke="#ffc400" stroke-linecap="round" stroke-miterlimit="10" stroke-width="1"/>
    <line id="Line_16" data-name="Line 16" y1="0.808" x2="2.872" transform="translate(193.842 254.488)" fill="none" stroke="#ffc400" stroke-linecap="round" stroke-miterlimit="10" stroke-width="1"/>
    <line id="Line_17" data-name="Line 17" x2="2.872" y2="1.106" transform="translate(193.842 261.04)" fill="none" stroke="#ffc400" stroke-linecap="round" stroke-miterlimit="10" stroke-width="1"/>
    <line id="Line_18" data-name="Line 18" x2="3.021" y2="2.766" transform="translate(191.013 265.337)" fill="none" stroke="#ffc400" stroke-linecap="round" stroke-miterlimit="10" stroke-width="1"/>
  </g>
</svg>
