<svg xmlns="http://www.w3.org/2000/svg" width="227.08" height="98.486" viewBox="0 0 227.08 98.486">
  <g id="Group_9" data-name="Group 9" transform="translate(-84.229 -405.296)">
    <g id="Group_10" data-name="Group 10" transform="translate(22)">
      <text id="for_a_sustained_living" data-name="for a sustained living" transform="translate(123.309 480.485)" fill="#454545" font-size="16" font-family="Montserrat-Regular, Montserrat"><tspan x="0" y="0">for a sustained living</tspan></text>
      <text id="in_an_apartment" data-name="in an apartment" transform="translate(123.309 499.782)" fill="#454545" font-size="16" font-family="Montserrat-Regular, Montserrat"><tspan x="0" y="0">in an apartment</tspan></text>
      <g id="Group_6" data-name="Group 6" transform="translate(62.229 405.296)">
        <g id="Group_4" data-name="Group 4" transform="translate(0)">
          <g id="Group_3" data-name="Group 3" transform="translate(0)">
            <g id="Group_2" data-name="Group 2">
              <g id="Group_1" data-name="Group 1" transform="translate(0 10.842)">
                <path id="Path_1" data-name="Path 1" d="M133.524,321.366a12.865,12.865,0,0,1,7.173,1.994,8.027,8.027,0,0,1,.987.716V313.922c-.319-.184-.649-.358-.987-.513a18.823,18.823,0,0,0-8.151-1.849c-12.982-.087-23.156,7.928-23.156,23.224,0,15.586,9.739,23.688,22.875,23.6a20.163,20.163,0,0,0,8.432-2.178c.339-.165.668-.349.987-.542V345.578a10.749,10.749,0,0,1-.987.716,12.868,12.868,0,0,1-7.173,2c-7.29,0-13.137-5.034-13.137-13.514C120.387,326.333,126.234,321.366,133.524,321.366Zm7.173-8.722v44.4h10.242v-44.4Z" transform="translate(-109.39 -311.559)" fill="#fff"/>
                <path id="Path_2" data-name="Path 2" d="M198.32,341.369V322.192h-8.287v-8.316a23.712,23.712,0,0,0-10.271-2.227c-5.044,0-11.617,2.807-15.044,7.754l-.077-6.767H154.38v62.934h10.978V351.805c3.156,4.86,10.078,6.292,14.763,6.292,8.916,0,15.45-4.017,19.1-10.213A21.894,21.894,0,0,1,198.32,341.369Zm-19.371,6.118a12.314,12.314,0,0,1-12.6-12.614c0-6.922,4.676-12.594,12.6-12.594s12.614,5.673,12.614,12.594A12.31,12.31,0,0,1,178.949,347.488Z" transform="translate(-110.827 -311.562)" fill="#fff"/>
              </g>
              <path id="Path_3" data-name="Path 3" d="M211.937,320.331v19.177c0,4.23,2.343,6.215,5.76,6.3,1.684.039,2.8.077,5.034.077v9.845h-6.263v-.01c-9.342.155-15.431-5.334-15.431-16.215V320.331H192.76v-9.458h8.277V300.36h10.987v10.513H224.27v9.458Z" transform="translate(-112.053 -300.36)" fill="#fff"/>
              <rect id="Rectangle_3" data-name="Rectangle 3" width="9.917" height="9.917" transform="translate(114.028 45.501)" fill="#fff"/>
            </g>
          </g>
        </g>
      </g>
    </g>
  </g>
</svg>
